%YAML 1.1
%TAG !u! tag:unity3d.com,2011:
--- !u!1045 &1
EditorBuildSettings:
  m_ObjectHideFlags: 0
  serializedVersion: 2
  m_Scenes:
  - enabled: 1
    path: Assets/Main.unity
    guid: ae68a0d6c03a9c041a06faeb4b0be39d
  - enabled: 1
    path: Assets/AREva.unity
    guid: ed2f0ff11613d9745bfb1165a70d2d94
  - enabled: 1
    path: Assets/GoingNowhere.unity
    guid: 5689e0ddcd0abe34ea2140ae3d79dd10
